tb_toy.vcd
$date
	Sun Mar 02 15:22:45 2025
$end
$version
	Icarus Verilog
$end
$timescale
	1ps
$end
$scope module tb_toy $end
$var wire 1 ! uart_tx $end
$var reg 1 " clk $end
$var reg 1 # rst $end
$scope module dut_toy $end
$var wire 1 $ div_ce $end
$var wire 1 " i_clk $end
$var wire 1 # i_reset $end
$var wire 1 % toy_ce $end
$var wire 16 & uart_status [15:0] $end
$var wire 1 ' uart_ready $end
$var wire 16 ( ram_read_data [15:0] $end
$var wire 1 ! o_tx $end
$var wire 1 ) o_halted $end
$var wire 16 * bus_write_data [15:0] $end
$var wire 16 + bus_write_addr [15:0] $end
$var wire 1 , bus_we $end
$var wire 16 - bus_read_addr [15:0] $end
$var parameter 32 . BAUD_DIV $end
$var reg 16 / bus_read_data [15:0] $end
$var reg 10 0 ram_read_addr [9:0] $end
$var reg 1 1 ram_we $end
$var reg 10 2 ram_write_addr [9:0] $end
$var reg 16 3 ram_write_data [15:0] $end
$var reg 1 4 uart_go $end
$var reg 8 5 uart_tx_data [7:0] $end
$scope module toy_cpu $end
$var wire 16 6 alu_op1 [15:0] $end
$var wire 16 7 alu_op2 [15:0] $end
$var wire 1 % i_ce $end
$var wire 1 " i_clk $end
$var wire 16 8 i_mem_read_data [15:0] $end
$var wire 1 # i_rst $end
$var wire 16 9 o_mem_write_data [15:0] $end
$var wire 4 : reg_addr_2 [3:0] $end
$var wire 4 ; reg_addr_w [3:0] $end
$var wire 16 < reg_seg_d [15:0] $end
$var wire 16 = reg_seg_c [15:0] $end
$var wire 16 > reg_data_2 [15:0] $end
$var wire 16 ? reg_data_1 [15:0] $end
$var wire 4 @ inst_src_t [3:0] $end
$var wire 4 A inst_src_s [3:0] $end
$var wire 4 B inst_opcode [3:0] $end
$var wire 4 C inst_dest [3:0] $end
$var wire 8 D inst_addr_imm [7:0] $end
$var wire 16 E alu_r [15:0] $end
$var wire 3 F alu_opcode [2:0] $end
$var parameter 3 G state_decode $end
$var parameter 3 H state_fetch $end
$var parameter 3 I state_read_data $end
$var parameter 3 J state_read_inst $end
$var parameter 3 K state_reset $end
$var parameter 3 L state_writeback $end
$var reg 3 M currentState [2:0] $end
$var reg 16 N ir [15:0] $end
$var reg 16 O next_pc [15:0] $end
$var reg 1 ) o_halted $end
$var reg 16 P o_mem_read_addr [15:0] $end
$var reg 16 Q o_mem_write_addr [15:0] $end
$var reg 1 , o_ram_we $end
$var reg 16 R pc [15:0] $end
$var reg 4 S reg_addr_1 [3:0] $end
$var reg 16 T reg_data_w [15:0] $end
$var reg 1 U reg_we $end
$scope module cpu_alu $end
$var wire 16 V i_a [15:0] $end
$var wire 16 W i_b [15:0] $end
$var wire 3 X i_op [2:0] $end
$var wire 4 Y shamt [3:0] $end
$var reg 16 Z o_r [15:0] $end
$upscope $end
$scope module cpu_regs $end
$var wire 1 % i_ce $end
$var wire 1 " i_clk $end
$var wire 4 [ i_r1_addr [3:0] $end
$var wire 4 \ i_r2_addr [3:0] $end
$var wire 1 # i_rst $end
$var wire 4 ] i_w_addr [3:0] $end
$var wire 16 ^ i_w_data [15:0] $end
$var wire 1 U i_we $end
$var reg 16 _ o_r1_data [15:0] $end
$var reg 16 ` o_r2_data [15:0] $end
$var reg 16 a o_seg_c [15:0] $end
$var reg 16 b o_seg_d [15:0] $end
$scope begin $ivl_for_loop0 $end
$var integer 32 c i [31:0] $end
$upscope $end
$upscope $end
$upscope $end
$scope module toy_ram $end
$var wire 1 % i_ce $end
$var wire 1 " i_clk $end
$var wire 10 d i_r_addr [9:0] $end
$var wire 10 e i_w_addr [9:0] $end
$var wire 16 f i_w_data [15:0] $end
$var wire 1 1 i_we $end
$var reg 16 g o_r_data [15:0] $end
$upscope $end
$scope module toy_tx $end
$var wire 1 " i_clk $end
$var wire 8 h i_data [7:0] $end
$var wire 1 4 i_go $end
$var wire 1 # i_rst $end
$var parameter 32 i BAUD_DIV $end
$var parameter 3 j state_idle $end
$var parameter 3 k state_reset $end
$var parameter 3 l state_startbit $end
$var parameter 3 m state_stopbit $end
$var parameter 3 n state_tx $end
$var reg 16 o baud_cnt [15:0] $end
$var reg 4 p bits_to_send [3:0] $end
$var reg 4 q currentState [3:0] $end
$var reg 8 r data_reg [7:0] $end
$var reg 1 ' o_ready $end
$var reg 1 ! o_tx $end
$upscope $end
$upscope $end
$upscope $end
$enddefinitions $end
$comment Show the parameter values. $end
$dumpall
b11 n
b100 m
b10 l
b0 k
b1 j
b1 i
b101 L
b0 K
b1 J
b100 I
b10 H
b11 G
b1 .
$end
#0
$dumpvars
bx r
bx q
bx p
bx o
bx h
bx g
bx f
bx e
b0 d
bx c
bx b
bx a
bx `
bx _
b0 ^
bx ]
bx \
bx [
bx Z
bx Y
bx X
bx W
bx V
xU
b0 T
bx S
bx R
bx Q
bx P
bx O
bx N
bx M
bx F
bx E
bx D
bx C
bx B
bx A
bx @
bx ?
bx >
bx =
bx <
bx ;
bx :
bx 9
b0 8
bx 7
bx 6
bx 5
x4
bx 3
bx 2
x1
b0 0
b0 /
bx -
x,
bx +
bx *
x)
bx (
x'
b0x &
1%
1$
0#
0"
x!
$end
#1000
b0 5
b0 h
04
b0 3
b0 f
b0 2
b0 e
01
b0 &
0,
0U
0'
b0 q
b111000100000001 (
b111000100000001 g
0)
b0 M
b10000 c
1#
1"
#2000
0"
#3000
b111000100000001 /
b111000100000001 8
b1 O
b0 -
b0 P
b1 &
b1 M
b0 R
1!
b1 q
1'
b0 <
b0 b
b0 =
b0 a
1"
0#
#4000
0"
#5000
b10 M
1"
#6000
0"
#7000
b0 E
b0 Z
b0 /
b0 8
b111 F
b111 X
b1 S
b1 [
b1 T
b1 ^
bx -
bx P
b111 B
b1 ;
b1 ]
b1 C
b0 A
b1 :
b1 \
b1 @
b1 D
b11 M
b111000100000001 N
1"
#8000
0"
#9000
b111000100000001 /
b111000100000001 8
b0 +
b0 Q
b0 Y
b0 -
b0 P
b0 7
b0 W
b0 >
b0 `
b0 6
b0 V
b0 *
b0 9
b0 ?
b0 _
b100 M
1"
#10000
0"
#11000
1U
b101 M
1"
#12000
0"
#13000
b1 0
b1 d
0U
b10 O
b1 -
b1 P
b1 M
b1 R
1"
#14000
0"
#15000
b1 2
b1 e
b111100000000100 /
b111100000000100 8
b1 +
b1 Q
b1 Y
b1 3
b1 f
b10 M
b111100000000100 (
b111100000000100 g
b1 7
b1 W
b1 >
b1 `
b1 6
b1 V
b1 *
b1 9
b1 ?
b1 _
1"
#16000
0"
#17000
b1000 S
b1000 [
b100 T
b100 ^
b1000 ;
b1000 ]
b1000 C
b100 :
b100 \
b100 @
b100 D
b11 M
b111100000000100 N
1"
#18000
0"
#19000
b0 2
b0 e
b0 0
b0 d
b0 +
b0 Q
b0 -
b0 P
b0 Y
b0 3
b0 f
b100 M
b0 7
b0 W
b0 >
b0 `
b0 6
b0 V
b0 *
b0 9
b0 ?
b0 _
1"
#20000
0"
#21000
b111000100000001 /
b111000100000001 8
1U
b111000100000001 (
b111000100000001 g
b101 M
1"
#22000
0"
#23000
b10 0
b10 d
0U
b11 O
b10 -
b10 P
b1 M
b10 R
1"
#24000
0"
#25000
b100 3
b100 f
b111011100110010 /
b111011100110010 8
b100 6
b100 V
b100 *
b100 9
b100 ?
b100 _
b111011100110010 (
b111011100110010 g
b10 M
1"
#26000
0"
#27000
b0 0
b0 d
b111 S
b111 [
b110010 T
b110010 ^
b0 -
b0 P
b111 ;
b111 ]
b111 C
b11 A
b10 :
b10 \
b10 @
b110010 D
b11 M
b111011100110010 N
1"
#28000
0"
#29000
b0 3
b0 f
b111000100000001 /
b111000100000001 8
b0 6
b0 V
b0 *
b0 9
b0 ?
b0 _
b111000100000001 (
b111000100000001 g
b100 M
1"
#30000
0"
#31000
1U
b101 M
1"
#32000
0"
#33000
b11 0
b11 d
0U
b100 O
b11 -
b11 P
b1 M
b11 R
1"
#34000
0"
#35000
b101011101111000 /
b101011101111000 8
b110010 3
b110010 f
b10 M
b101011101111000 (
b101011101111000 g
b110010 6
b110010 V
b110010 *
b110010 9
b110010 ?
b110010 _
1"
#36000
0"
#37000
b110010 E
b110010 Z
b0 0
b0 d
b101 F
b101 X
b110010 T
b110010 ^
b0 -
b0 P
b101 B
b111 A
b1000 :
b1000 \
b1000 @
b1111000 D
b11 M
b101011101111000 N
1"
#38000
0"
#39000
b100 2
b100 e
b1100100000 T
b1100100000 ^
b111000100000001 /
b111000100000001 8
b100 0
b100 d
b100 +
b100 Q
b100 -
b100 P
b1100100000 E
b1100100000 Z
b100 Y
b100 M
b111000100000001 (
b111000100000001 g
b100 7
b100 W
b100 >
b100 `
1"
#40000
0"
#41000
b1010001100000111 /
b1010001100000111 8
1U
b1010001100000111 (
b1010001100000111 g
b101 M
1"
#42000
0"
#43000
0U
b101 O
b1 M
b100 R
1"
#44000
0"
#45000
b11001000000000 T
b11001000000000 ^
b11001000000000 E
b11001000000000 Z
b1100100000 3
b1100100000 f
b1100100000 6
b1100100000 V
b1100100000 *
b1100100000 9
b1100100000 ?
b1100100000 _
b10 M
1"
#46000
0"
#47000
b1100011100 E
b1100011100 Z
b10 F
b10 X
b11 S
b11 [
b1010001100000111 T
b1010001100000111 ^
b1010 B
b11 ;
b11 ]
b11 C
b0 A
b111 :
b111 \
b111 @
b111 D
b11 M
b1010001100000111 N
1"
#48000
0"
#49000
b1100100000 2
b1100100000 e
b1100100000 0
b1100100000 d
b1100100000 +
b1100100000 Q
b0 Y
b1111110011100000 E
b1111110011100000 Z
b0 3
b0 f
b1100100000 -
b1100100000 P
b1100100000 7
b1100100000 W
b1100100000 >
b1100100000 `
b0 6
b0 V
b0 *
b0 9
b0 ?
b0 _
b100 M
1"
#50000
0"
#51000
b1001000 T
b1001000 ^
1U
b1001000 /
b1001000 8
b101 M
b1001000 (
b1001000 g
1"
#52000
0"
#53000
b101 0
b101 d
0U
b110 O
b101 -
b101 P
b1 M
b101 R
1"
#54000
0"
#55000
b111111000000011 T
b111111000000011 ^
b111111000000011 /
b111111000000011 8
b1111110100101000 E
b1111110100101000 Z
b1001000 3
b1001000 f
b10 M
b111111000000011 (
b111111000000011 g
b1001000 6
b1001000 V
b1001000 *
b1001000 9
b1001000 ?
b1001000 _
1"
#56000
0"
#57000
b0 E
b0 Z
b1100100000 0
b1100100000 d
b111 F
b111 X
b1110 S
b1110 [
b11 T
b11 ^
b1100100000 -
b1100100000 P
b111 B
b1110 ;
b1110 ]
b1110 C
b11 :
b11 \
b11 @
b11 D
b11 M
b111111000000011 N
1"
#58000
0"
#59000
b1001000 2
b1001000 e
b1001000 /
b1001000 8
b1001000 0
b1001000 d
b1001000 +
b1001000 Q
b1001000 -
b1001000 P
b1000 Y
b0 3
b0 f
b100 M
b1001000 (
b1001000 g
b1001000 7
b1001000 W
b1001000 >
b1001000 `
b0 6
b0 V
b0 *
b0 9
b0 ?
b0 _
1"
#60000
0"
#61000
bx /
bx 8
1U
bx (
bx g
b101 M
1"
#62000
0"
#63000
b110 0
b110 d
0U
b111 O
b110 -
b110 P
b1 M
b110 R
1"
#64000
0"
#65000
b11 3
b11 f
b1111110000000010 /
b1111110000000010 8
b11 6
b11 V
b11 *
b11 9
b11 ?
b11 _
b11 =
b11 a
b1111110000000010 (
b1111110000000010 g
b10 M
1"
#66000
0"
#67000
b1001000 0
b1001000 d
b1100 S
b1100 [
b1100000010 O
b111 T
b111 ^
b1001000 -
b1001000 P
b1111 B
b1100 ;
b1100 ]
b1100 C
b10 :
b10 \
b10 @
b10 D
b11 M
b1111110000000010 N
1"
#68000
0"
#69000
b0 2
b0 e
b0 +
b0 Q
b0 Y
b0 3
b0 f
bx /
bx 8
b0 0
b0 d
b0 -
b0 P
b0 7
b0 W
b0 >
b0 `
b0 6
b0 V
b0 *
b0 9
b0 ?
b0 _
bx (
bx g
b100 M
1"
#70000
0"
#71000
1U
b111000100000001 /
b111000100000001 8
b101 M
b111000100000001 (
b111000100000001 g
1"
#72000
0"
#73000
b1100000010 0
b1100000010 d
0U
b1100000010 -
b1100000010 P
b1100000011 T
b1100000011 ^
b1 M
b1100000010 R
1"
#74000
0"
#75000
b111111100000100 /
b111111100000100 8
b111 3
b111 f
b10 M
b111111100000100 (
b111111100000100 g
b111 6
b111 V
b111 *
b111 9
b111 ?
b111 _
1"
#76000
0"
#77000
b0 0
b0 d
b1111 S
b1111 [
b1100000011 O
b100 T
b100 ^
b0 -
b0 P
b111 B
b1111 ;
b1111 ]
b1111 C
b100 :
b100 \
b100 @
b100 D
b11 M
b111111100000100 N
1"
#78000
0"
#79000
b111000100000001 /
b111000100000001 8
b0 3
b0 f
b100 M
b111000100000001 (
b111000100000001 g
b0 6
b0 V
b0 *
b0 9
b0 ?
b0 _
1"
#80000
0"
#81000
1U
b101 M
1"
#82000
0"
#83000
b1100000011 0
b1100000011 d
0U
b1100000100 O
b1100000011 -
b1100000011 P
b1 M
b1100000011 R
1"
#84000
0"
#85000
b100 3
b100 f
b1000001000000000 /
b1000001000000000 8
b100 6
b100 V
b100 *
b100 9
b100 ?
b100 _
b100 <
b100 b
b1000001000000000 (
b1000001000000000 g
b10 M
1"
#86000
0"
#87000
b1 /
b1 8
b0 0
b0 d
b0 F
b0 X
b10 S
b10 [
b1 T
b1 ^
b10000000000 -
b10000000000 P
b1000 B
b10 ;
b10 ]
b10 C
b0 :
b0 \
b0 @
b0 D
b11 M
b1000001000000000 N
1"
#88000
0"
#89000
b0 3
b0 f
b0 6
b0 V
b0 *
b0 9
b0 ?
b0 _
b111000100000001 (
b111000100000001 g
b100 M
1"
#90000
0"
#91000
1U
b101 M
1"
#92000
0"
#93000
b111000100000001 T
b111000100000001 ^
b111000100000001 /
b111000100000001 8
b1100000100 0
b1100000100 d
0U
b1100000101 O
b1100000100 -
b1100000100 P
b1 M
b1100000100 R
1"
#94000
0"
#95000
b1100001000000011 T
b1100001000000011 ^
b1100001000000011 /
b1100001000000011 8
b1 3
b1 f
b10 M
b1100001000000011 (
b1100001000000011 g
b1 6
b1 V
b1 *
b1 9
b1 ?
b1 _
1"
#96000
0"
#97000
b1 E
b1 Z
b0 0
b0 d
b100 F
b100 X
b0 T
b0 ^
b0 -
b0 P
b1100 B
b11 :
b11 \
b11 @
b11 D
b11 M
b1100001000000011 N
1"
#98000
0"
#99000
b1001000 2
b1001000 e
b111000100000001 /
b111000100000001 8
b1001000 0
b1001000 d
b1001000 +
b1001000 Q
b1001000 -
b1001000 P
b1001001 E
b1001001 Z
b1000 Y
b100 M
b111000100000001 (
b111000100000001 g
b1001000 7
b1001000 W
b1001000 >
b1001000 `
1"
#100000
0"
#101000
bx /
bx 8
bx (
bx g
b101 M
1"
#102000
0"
#103000
b1100000101 0
b1100000101 d
b1100000110 O
b1100000101 -
b1100000101 P
b1 M
b1100000101 R
1"
#104000
0"
#105000
b1001001100000000 /
b1001001100000000 8
b1001001100000000 (
b1001001100000000 g
b10 M
1"
#106000
0"
#107000
b1 5
b1 h
b0 3
b0 f
b0 2
b0 e
b1001000 0
b1001000 d
b1 F
b1 X
b11 S
b11 [
b10000000000 +
b10000000000 Q
b1001000 -
b1001000 P
b1001 B
b11 ;
b11 ]
b11 C
b0 :
b0 \
b0 @
b0 D
b11 M
b1001001100000000 N
1"
#108000
0"
#109000
b0 Y
b1001000 E
b1001000 Z
b1001000 5
b1001000 h
bx /
bx 8
b0 0
b0 d
b0 -
b0 P
b0 7
b0 W
b0 >
b0 `
b1001000 6
b1001000 V
b1001000 *
b1001000 9
b1001000 ?
b1001000 _
bx (
bx g
b100 M
1"
#110000
0"
#111000
14
1,
b111000100000001 /
b111000100000001 8
b101 M
b111000100000001 (
b111000100000001 g
1"
#112000
0"
#113000
04
b1100000110 0
b1100000110 d
b0 &
0,
b1100000111 O
b1100000110 -
b1100000110 P
b10 q
0!
b1001000 r
b1 o
0'
b1000 p
b1 M
b1100000110 R
1"
#114000
0"
#115000
b1110110000000000 /
b1110110000000000 8
b10 M
b1110110000000000 (
b1110110000000000 g
b11 q
b111 p
b100100 r
1"
#116000
0"
#117000
b0 5
b0 h
b1001000 3
b1001000 f
b0 0
b0 d
b110 F
b110 X
b1001000 O
b0 +
b0 Q
b1100 S
b1100 [
b0 -
b0 P
b1110 B
b1100 ;
b1100 ]
b1100 C
b110 p
b10010 r
b11 M
b1110110000000000 N
1"
#118000
0"
#119000
b111000100000001 /
b111000100000001 8
b111 O
b111 E
b111 Z
b111 3
b111 f
b100 M
b111000100000001 (
b111000100000001 g
b101 p
b1001 r
b111 6
b111 V
b111 *
b111 9
b111 ?
b111 _
1"
#120000
0"
#121000
b100 p
b100 r
1!
b101 M
1"
#122000
0"
#123000
b111 0
b111 d
b111 -
b111 P
b1 M
b111 R
b11 p
b10 r
0!
1"
#124000
0"
#125000
b111111000000000 /
b111111000000000 8
b10 p
b1 r
b111111000000000 (
b111111000000000 g
b10 M
1"
#126000
0"
#127000
b0 E
b0 Z
b0 0
b0 d
b111 F
b111 X
b1000 O
b1110 S
b1110 [
b0 -
b0 P
b111 B
b1110 ;
b1110 ]
b1110 C
b11 M
b111111000000000 N
b1 p
b0 r
1!
1"
#128000
0"
#129000
b11 3
b11 f
b111000100000001 /
b111000100000001 8
b11 6
b11 V
b11 *
b11 9
b11 ?
b11 _
b0 p
0!
b111000100000001 (
b111000100000001 g
b100 M
1"
#130000
0"
#131000
1U
b101 M
1!
b100 q
1"
#132000
0"
#133000
b1000 0
b1000 d
b1 &
0U
b1001 O
b1000 -
b1000 P
b1 q
1'
b1 M
b1000 R
1"
#134000
0"
#135000
b1100001100001011 /
b1100001100001011 8
b0 3
b0 f
b10 M
b1100001100001011 (
b1100001100001011 g
b0 6
b0 V
b0 *
b0 9
b0 ?
b0 _
b0 =
b0 a
1"
#136000
0"
#137000
b0 0
b0 d
b100 F
b100 X
b11 S
b11 [
b1011 O
b0 -
b0 P
b1100 B
b11 ;
b11 ]
b11 C
b1011 :
b1011 \
b1011 @
b1011 D
b11 M
b1100001100001011 N
1"
#138000
0"
#139000
b111000100000001 /
b111000100000001 8
b1001 O
b1001000 E
b1001000 Z
b1001000 3
b1001000 f
b100 M
b111000100000001 (
b111000100000001 g
b1001000 6
b1001000 V
b1001000 *
b1001000 9
b1001000 ?
b1001000 _
1"
#140000
0"
#141000
b101 M
1"
#142000
0"
#143000
b1001 0
b1001 d
b1010 O
b1001 -
b1001 P
b1 M
b1001 R
1"
#144000
0"
#145000
b1011101110001 /
b1011101110001 8
b1011101110001 (
b1011101110001 g
b10 M
1"
#146000
0"
#147000
b0 0
b0 d
b1 F
b1 X
b111 S
b111 [
b1001000 T
b1001000 ^
b0 -
b0 P
b1 B
b111 ;
b111 ]
b111 C
b111 A
b1 :
b1 \
b1 @
b1110001 D
b11 M
b1011101110001 N
1"
#148000
0"
#149000
b1 2
b1 e
b1100100001 T
b1100100001 ^
b1 +
b1 Q
b1 Y
b1100100001 E
b1100100001 Z
b1100100000 3
b1100100000 f
b111000100000001 /
b111000100000001 8
b1 0
b1 d
b1 -
b1 P
b1 7
b1 W
b1 >
b1 `
b1100100000 6
b1100100000 V
b1100100000 *
b1100100000 9
b1100100000 ?
b1100100000 _
b111000100000001 (
b111000100000001 g
b100 M
1"
#150000
0"
#151000
1U
b111100000000100 /
b111100000000100 8
b101 M
b111100000000100 (
b111100000000100 g
1"
#152000
0"
#153000
b1010 0
b1010 d
0U
b1011 O
b1010 -
b1010 P
b1 M
b1010 R
1"
#154000
0"
#155000
b1100100010 T
b1100100010 ^
b1111000000000100 /
b1111000000000100 8
b1100100010 E
b1100100010 Z
b1100100001 3
b1100100001 f
b10 M
b1111000000000100 (
b1111000000000100 g
b1100100001 6
b1100100001 V
b1100100001 *
b1100100001 9
b1100100001 ?
b1100100001 _
1"
#156000
0"
#157000
b0 E
b0 Z
b1 0
b1 d
b111 F
b111 X
b0 S
b0 [
b100 O
b1011 T
b1011 ^
b1 -
b1 P
b1111 B
b0 ;
b0 ]
b0 C
b0 A
b100 :
b100 \
b100 @
b100 D
b11 M
b1111000000000100 N
1"
#158000
0"
#159000
b0 2
b0 e
b111100000000100 /
b111100000000100 8
b0 0
b0 d
b0 +
b0 Q
b0 -
b0 P
b0 Y
b0 3
b0 f
b100 M
b111100000000100 (
b111100000000100 g
b0 7
b0 W
b0 >
b0 `
b0 6
b0 V
b0 *
b0 9
b0 ?
b0 _
1"
#160000
0"
#161000
b111000100000001 /
b111000100000001 8
1U
b111000100000001 (
b111000100000001 g
b101 M
1"
#162000
0"
#163000
b100 0
b100 d
0U
b100 -
b100 P
b101 T
b101 ^
b1 M
b100 R
1"
#164000
0"
#165000
b1010001100000111 /
b1010001100000111 8
b1010001100000111 (
b1010001100000111 g
b10 M
1"
#166000
0"
#167000
b0 0
b0 d
b10 F
b10 X
b11 S
b11 [
b101 O
b1010001100000111 T
b1010001100000111 ^
b0 -
b0 P
b1010 B
b11 ;
b11 ]
b11 C
b111 :
b111 \
b111 @
b111 D
b11 M
b1010001100000111 N
1"
#168000
0"
#169000
b1100100001 2
b1100100001 e
b111000100000001 T
b111000100000001 ^
b1100100001 +
b1100100001 Q
b1 Y
b1111110100100111 E
b1111110100100111 Z
b1001000 3
b1001000 f
b111000100000001 /
b111000100000001 8
b1100100001 0
b1100100001 d
b1100100001 -
b1100100001 P
b1100100001 7
b1100100001 W
b1100100001 >
b1100100001 `
b1001000 6
b1001000 V
b1001000 *
b1001000 9
b1001000 ?
b1001000 _
b111000100000001 (
b111000100000001 g
b100 M
1"
#170000
0"
#171000
b1100101 T
b1100101 ^
1U
b1100101 /
b1100101 8
b101 M
b1100101 (
b1100101 g
1"
#172000
0"
#173000
b101 0
b101 d
0U
b110 O
b101 -
b101 P
b1 M
b101 R
1"
#174000
0"
#175000
b111111000000011 T
b111111000000011 ^
b111111000000011 /
b111111000000011 8
b1111110101000100 E
b1111110101000100 Z
b1100101 3
b1100101 f
b10 M
b111111000000011 (
b111111000000011 g
b1100101 6
b1100101 V
b1100101 *
b1100101 9
b1100101 ?
b1100101 _
1"
#176000
0"
#177000
b0 E
b0 Z
b1100100001 0
b1100100001 d
b111 F
b111 X
b1110 S
b1110 [
b11 T
b11 ^
b1100100001 -
b1100100001 P
b111 B
b1110 ;
b1110 ]
b1110 C
b11 :
b11 \
b11 @
b11 D
b11 M
b111111000000011 N
1"
#178000
0"
#179000
b1100101 2
b1100101 e
b1100101 /
b1100101 8
b1100101 0
b1100101 d
b1100101 +
b1100101 Q
b1100101 -
b1100101 P
b101 Y
b0 3
b0 f
b100 M
b1100101 (
b1100101 g
b1100101 7
b1100101 W
b1100101 >
b1100101 `
b0 6
b0 V
b0 *
b0 9
b0 ?
b0 _
1"
#180000
0"
#181000
bx /
bx 8
1U
bx (
bx g
b101 M
1"
#182000
0"
#183000
b110 0
b110 d
0U
b111 O
b110 -
b110 P
b1 M
b110 R
1"
#184000
0"
#185000
b11 3
b11 f
b1111110000000010 /
b1111110000000010 8
b11 6
b11 V
b11 *
b11 9
b11 ?
b11 _
b11 =
b11 a
b1111110000000010 (
b1111110000000010 g
b10 M
1"
#186000
0"
#187000
b1100101 0
b1100101 d
b1100 S
b1100 [
b1100000010 O
b111 T
b111 ^
b1100101 -
b1100101 P
b1111 B
b1100 ;
b1100 ]
b1100 C
b10 :
b10 \
b10 @
b10 D
b11 M
b1111110000000010 N
1"
#188000
0"
#189000
b1 2
b1 e
b1 +
b1 Q
b1 Y
b111 3
b111 f
bx /
bx 8
b1 0
b1 d
b1 -
b1 P
b1 7
b1 W
b1 >
b1 `
b111 6
b111 V
b111 *
b111 9
b111 ?
b111 _
bx (
bx g
b100 M
1"
#190000
0"
#191000
1U
b111100000000100 /
b111100000000100 8
b101 M
b111100000000100 (
b111100000000100 g
1"
#192000
0"
#193000
b1100000010 0
b1100000010 d
0U
b1100000010 -
b1100000010 P
b1100000011 T
b1100000011 ^
b1 M
b1100000010 R
1"
#194000
0"
#195000
b111111100000100 /
b111111100000100 8
b10 M
b111111100000100 (
b111111100000100 g
1"
#196000
0"
#197000
b1 0
b1 d
b1111 S
b1111 [
b1100000011 O
b100 T
b100 ^
b1 -
b1 P
b111 B
b1111 ;
b1111 ]
b1111 C
b100 :
b100 \
b100 @
b100 D
b11 M
b111111100000100 N
1"
#198000
0"
#199000
b0 2
b0 e
b111100000000100 /
b111100000000100 8
b0 0
b0 d
b0 +
b0 Q
b0 -
b0 P
b0 Y
b100 3
b100 f
b100 M
b111100000000100 (
b111100000000100 g
b0 7
b0 W
b0 >
b0 `
b100 6
b100 V
b100 *
b100 9
b100 ?
b100 _
1"
#200000
0"
#201000
b111000100000001 /
b111000100000001 8
1U
b111000100000001 (
b111000100000001 g
b101 M
1"
#202000
0"
#203000
b1100000011 0
b1100000011 d
0U
b1100000100 O
b1100000011 -
b1100000011 P
b1 M
b1100000011 R
1"
#204000
0"
#205000
b1000001000000000 /
b1000001000000000 8
b1000001000000000 (
b1000001000000000 g
b10 M
1"
#206000
0"
#207000
b1 /
b1 8
b0 0
b0 d
b0 F
b0 X
b10 S
b10 [
b1 T
b1 ^
b10000000000 -
b10000000000 P
b1000 B
b10 ;
b10 ]
b10 C
b0 :
b0 \
b0 @
b0 D
b11 M
b1000001000000000 N
1"
#208000
0"
#209000
b1 3
b1 f
b1 6
b1 V
b1 *
b1 9
b1 ?
b1 _
b111000100000001 (
b111000100000001 g
b100 M
1"
#210000
0"
#211000
1U
b101 M
1"
#212000
0"
#213000
b111000100000001 T
b111000100000001 ^
b111000100000001 /
b111000100000001 8
b1100000100 0
b1100000100 d
0U
b1100000101 O
b1100000100 -
b1100000100 P
b1 M
b1100000100 R
1"
#214000
0"
#215000
b1100001000000011 T
b1100001000000011 ^
b1100001000000011 /
b1100001000000011 8
b10 M
b1100001000000011 (
b1100001000000011 g
1"
#216000
0"
#217000
b1 E
b1 Z
b0 0
b0 d
b100 F
b100 X
b0 T
b0 ^
b0 -
b0 P
b1100 B
b11 :
b11 \
b11 @
b11 D
b11 M
b1100001000000011 N
1"
#218000
0"
#219000
b1100101 2
b1100101 e
b111000100000001 /
b111000100000001 8
b1100101 0
b1100101 d
b1100101 +
b1100101 Q
b1100101 -
b1100101 P
b1100100 E
b1100100 Z
b101 Y
b100 M
b111000100000001 (
b111000100000001 g
b1100101 7
b1100101 W
b1100101 >
b1100101 `
1"
#220000
0"
#221000
bx /
bx 8
bx (
bx g
b101 M
1"
#222000
0"
#223000
b1100000101 0
b1100000101 d
b1100000110 O
b1100000101 -
b1100000101 P
b1 M
b1100000101 R
1"
#224000
0"
#225000
b1001001100000000 /
b1001001100000000 8
b1001001100000000 (
b1001001100000000 g
b10 M
1"
#226000
0"
#227000
b1100110 E
b1100110 Z
b1 5
b1 h
b0 3
b0 f
b0 2
b0 e
b1100101 0
b1100101 d
b1 F
b1 X
b11 S
b11 [
b10000000000 +
b10000000000 Q
b1100101 -
b1100101 P
b1001 B
b11 ;
b11 ]
b11 C
b0 :
b0 \
b0 @
b0 D
b11 M
b1001001100000000 N
1"
#228000
0"
#229000
b0 Y
b1100101 E
b1100101 Z
b1100101 5
b1100101 h
bx /
bx 8
b0 0
b0 d
b0 -
b0 P
b0 7
b0 W
b0 >
b0 `
b1100101 6
b1100101 V
b1100101 *
b1100101 9
b1100101 ?
b1100101 _
bx (
bx g
b100 M
1"
#230000
0"
#231000
14
1,
b111000100000001 /
b111000100000001 8
b101 M
b111000100000001 (
b111000100000001 g
1"
#232000
0"
#233000
04
b1100000110 0
b1100000110 d
b0 &
0,
b1100000111 O
b1100000110 -
b1100000110 P
b10 q
0!
b1100101 r
0'
b1000 p
b1 M
b1100000110 R
1"
#234000
0"
#235000
b1110110000000000 /
b1110110000000000 8
b10 M
b1110110000000000 (
b1110110000000000 g
b11 q
b111 p
b110010 r
1!
1"
#236000
0"
#237000
b0 5
b0 h
b1100101 3
b1100101 f
b0 0
b0 d
b110 F
b110 X
b1100101 O
b0 +
b0 Q
b1100 S
b1100 [
b0 -
b0 P
b1110 B
b1100 ;
b1100 ]
b1100 C
b110 p
b11001 r
0!
b11 M
b1110110000000000 N
1"
#238000
0"
#239000
b111000100000001 /
b111000100000001 8
b111 O
b111 E
b111 Z
b111 3
b111 f
b100 M
b111000100000001 (
b111000100000001 g
b101 p
b1100 r
1!
b111 6
b111 V
b111 *
b111 9
b111 ?
b111 _
1"
#240000
0"
#241000
b100 p
b110 r
0!
b101 M
1"
#242000
0"
#243000
b111 0
b111 d
b111 -
b111 P
b1 M
b111 R
b11 p
b11 r
1"
#244000
0"
#245000
b111111000000000 /
b111111000000000 8
b10 p
b1 r
1!
b111111000000000 (
b111111000000000 g
b10 M
1"
#246000
0"
#247000
b0 E
b0 Z
b0 0
b0 d
b111 F
b111 X
b1000 O
b1110 S
b1110 [
b0 -
b0 P
b111 B
b1110 ;
b1110 ]
b1110 C
b11 M
b111111000000000 N
b1 p
b0 r
1"
#248000
0"
#249000
b11 3
b11 f
b111000100000001 /
b111000100000001 8
b11 6
b11 V
b11 *
b11 9
b11 ?
b11 _
b0 p
0!
b111000100000001 (
b111000100000001 g
b100 M
1"
#250000
0"
#251000
1U
b101 M
1!
b100 q
1"
#252000
0"
#253000
b1000 0
b1000 d
b1 &
0U
b1001 O
b1000 -
b1000 P
b1 q
1'
b1 M
b1000 R
1"
#254000
0"
#255000
b1100001100001011 /
b1100001100001011 8
b0 3
b0 f
b10 M
b1100001100001011 (
b1100001100001011 g
b0 6
b0 V
b0 *
b0 9
b0 ?
b0 _
b0 =
b0 a
1"
#256000
0"
